{
  "rarities": [
    {
      "type": "trainer",
      "rarity": 200
    },
    {
      "type": "tutor",
      "rarity": 10
    },
    {
      "type": "relearner",
      "rarity": 10
    },
    {
      "type": "trader",
      "rarity": 20
    },
    {
      "type": "shopkeeper",
      "rarity": 10
    }
  ],
  "villagers": [
    {
      "name": "oldman"
    },
    {
      "name": "artist"
    },
    {
      "name": "baker"
    },
    {
      "name": "battlegirl"
    },
    {
      "name": "blackbelt"
    },
    {
      "name": "doctor"
    },
    {
      "name": "engineer"
    },
    {
      "name": "fisherman"
    },
    {
      "name": "hexmaniac"
    },
    {
      "name": "hiker"
    },
    {
      "name": "lass"
    },
    {
      "name": "littleboy"
    },
    {
      "name": "littlegirl"
    },
    {
      "name": "madame"
    },
    {
      "name": "monsieur"
    },
    {
      "name": "pkmn_breeder_f"
    },
    {
      "name": "mechanic"
    },
    {
      "name": "officerjenny"
    },
    {
      "name": "ornithologist"
    },
    {
      "name": "pokefan_f"
    },
    {
      "name": "pokefan_m"
    },
    {
      "name": "policeman"
    },
    {
      "name": "preschooler_f"
    },
    {
      "name": "psychic"
    },
    {
      "name": "psychic_f"
    },
    {
      "name": "punkgirl"
    },
    {
      "name": "punkguy"
    },
    {
      "name": "rancher"
    },
    {
      "name": "ranger_f"
    },
    {
      "name": "ranger_m"
    },
    {
      "name": "richboy"
    },
    {
      "name": "sailor"
    },
    {
      "name": "scaryman"
    },
    {
      "name": "schoolboy"
    },
    {
      "name": "schoolgirl"
    },
    {
      "name": "scientist_f"
    },
    {
      "name": "scientist_m"
    },
    {
      "name": "shoplady"
    },
    {
      "name": "shopgirl"
    },
    {
      "name": "shopman"
    },
    {
      "name": "supernerd"
    },
    {
      "name": "ghost_f"
    },
    {
      "name": "ghost_2"
    },
    {
      "name": "ghost_3"
    },
    {
      "name": "ghost_m"
    }
  ],
  "trainers": {
    "types": [
      {
        "name": "Steve",
        "textures": [ "scottish", "santa", "suit", "prisoner", "Custom_RP", "Custom_PN" ]
      },
      {
        "name": "BugCatcher",
        "rarity": 20,
        "textures": [ "bugcatcher1", "bugcatcher2", "bugcatcher3", "bugcatcher4" ]
      },
      {
        "name": "BugManiac",
        "rarity": 20,
        "textures": [ "bugcatchergirl" ]
      },
      {
        "name": "FemaleRocketGrunt",
        "rarity": 20,
        "textures": [ "rocketgruntfemale1", "rocketgruntfemale2", "rocketgruntfemale3", "rocketgruntfemale4", "rocketgruntfemale5", "rocketgruntfemale6" ]
      },
      {
        "name": "FireBreather",
        "rarity": 20,
        "textures": [ "firebreather1", "firebreather2", "firebreather3", "firebreather4", "firebreather5" ]
      },
      {
        "name": "Youngster",
        "rarity": 20,
        "textures": [ "youngster1", "youngster2", "youngster3", "youngster4" ]
      },
      {
        "name": "Lass",
        "rarity": 20,
        "textures": [ "youngstergirl", "youngstergirl2", "lass" ]
      },
      {
        "name": "PkmnBreederWoman",
        "rarity": 20,
        "textures": [ "pkmn_breeder_f", "pkmn_breeder_f2" ]
      },
      {
        "name": "Pokemaniac",
        "rarity": 20,
        "textures": [ "pokemaniac1", "pokemaniac2", "pokemaniac3" ]
      },
      {
        "name": "Pokemaniacgirl",
        "rarity": 20,
        "textures": [ "pokemaniacgirl1", "pokemaniacgirl2" ]
      },
      {
        "name": "Policeman",
        "rarity": 20,
        "textures": [ "policeman" ]
      },
      {
        "name": "PreschoolerGirl",
        "rarity": 20,
        "textures": [ "preschooler_f1" ]
      },
      {
        "name": "Rancher",
        "rarity": 20,
        "textures": [ "rancher" ]
      },
      {
        "name": "RichBoy",
        "rarity": 20,
        "textures": [ "richboy" ]
      },
      {
        "name": "FemaleScientist",
        "rarity": 20,
        "textures": [ "scientist_f" ]
      },
      {
        "name": "MaleScientist",
        "rarity": 20,
        "textures": [ "scientist_m" ]
      },
      {
        "name": "Swimmer",
        "rarity": 20,
        "textures": [ "swimmer_m" ]
      },
      {
        "name": "Fisherman",
        "rarity": 20,
        "textures": [ "fisherman" ]
      },
      {
        "name": "Miner",
        "rarity": 20,
        "textures": [ "miner" ]
      },
      {
        "name": "Blacksmith",
        "rarity": 20,
        "textures": [ "blacksmith" ]
      }
    ],
    "list": [
      {
        "name": "bugcatcher"
      },
      {
        "name": "bugmaniac"
      },
      {
        "name": "femalerocketgrunt"
      },
      {
        "name": "firebreather"
      },
      {
        "name": "fisherman"
      },
      {
        "name": "lass"
      },
      {
        "name": "ornithologist"
      },
      {
        "name": "pokemaniac"
      },
      {
        "name": "pkmnbreeder_f"
      },
      {
        "name": "policeman"
      },
      {
        "name": "preschoolergirl"
      },
      {
        "name": "rancher"
      },
      {
        "name": "pokemaniacgirl"
      },
      {
        "name": "richboy"
      },
      {
        "name": "scientistwoman"
      },
      {
        "name": "scientist"
      },
      {
        "name": "swimmer"
      },
      {
        "name": "miner"
      },
      {
        "name": "blacksmith"
      },
      {
        "name": "youngster"
      },
      {
        "name": "steve"
      }
    ]
  },
  "shopKeepers": [
    {
      "name": "bucket_shop"
    },
    {
      "name": "bug_tm_shop"
    },
    {
      "name": "cafe"
    },
    {
      "name": "dark_tm_shop"
    },
    {
      "name": "dragon_tm_shop"
    },
    {
      "name": "electric_tm_shop"
    },
    {
      "name": "evo_stone_shop"
    },
    {
      "name": "farming_export_shop"
    },
    {
      "name": "fighting_tm_shop"
    },
    {
      "name": "fire_tm_shop"
    },
    {
      "name": "flower_shop"
    },
    {
      "name": "flying_tm_shop"
    },
    {
      "name": "gem_export_shop"
    },
    {
      "name": "ghost_tm_shop"
    },
    {
      "name": "grass_tm_shop"
    },
    {
      "name": "ground_tm_shop"
    },
    {
      "name": "ice_tm_shop"
    },
    {
      "name": "mining_export_shop"
    },
    {
      "name": "normal_tm_shop"
    },
    {
      "name": "pharmacy"
    },
    {
      "name": "pokeball_export_shop"
    },
    {
      "name": "pokeball_sell_shop"
    },
    {
      "name": "pokemartmain1"
    },
    {
      "name": "pokemartmain2"
    },
    {
      "name": "pokemartmain3"
    },
    {
      "name": "pokemartsecond1"
    },
    {
      "name": "pokemartsecond2"
    },
    {
      "name": "psychic_tm_shop"
    },
    {
      "name": "rock_tm_shop"
    },
    {
      "name": "sapling_shop"
    },
    {
      "name": "steel_tm_shop"
    },
    {
      "name": "water_tm_shop"
    }
  ],
  "gymnpcs": [
    {
      "name": "grassgymintro"
    },
    {
      "name": "grassgymbase"
    },
    {
      "name": "grassgymleader"
    }
  ]
}
