{
  "data": {
    "type": "Spawn"
  },
  "textures": [
    {
      "name": "shopman.png"
    },
    {
      "name": "shopman2.png"
    },
    {
      "name": "shopman3.png"
    },
    {
      "name": "shopman4.png"
    },
    {
      "name": "shopman5.png"
    },
    {
      "name": "shoplady.png"
    },
    {
      "name": "shoplady2.png"
    },
    {
      "name": "shoplady3.png"
    },
    {
      "name": "shoplady4.png"
    },
    {
      "name": "shopsecondman.png"
    }
  ],
  "names": [
    {
      "name": "Charles"
    },
    {
      "name": "Eito"
    },
    {
      "name": "Mr. Benson"
    },
    {
      "name": "Mr. Wong"
    },
    {
      "name": "James"
    },
    {
      "name": "Digby"
    },
    {
      "name": "Janet"
    },
    {
      "name": "Sally"
    },
    {
      "name": "Suki"
    },
    {
      "name": "Mrs. Hammersmith"
    },
    {
      "name": "Mrs. Finnegan"
    },
    {
      "name": "Mr. Prendergast"
    },
    {
      "name": "Mrs. Finnegan"
    }
  ],
  "chat": [
    {
      "hello": "Welcome to my Pharmacy. I hope you find something you like!",
      "goodbye": "See you next time."
    },
    {
      "hello": "Hello, welcome to the Pharmacy. How may I help you?",
      "goodbye": "Thank you for shopping at the Pharmacy. Have a nice day."
    },
    {
      "hello": "Hello there! Welcome to my Pharmacy. I have only the best Pokémon medicines for sale.",
      "goodbye": "Thank you for shopping at my store."
    },
    {
      "hello": "Welcome to my Pharmacy. Nice day for shopping, isn't it?",
      "goodbye": "Come back soon, won't you?"
    },
    {
      "hello": "Hello there, welcome to the Pharmacy! We have many specials today!",
      "goodbye": "Come see us again, won't you?"
    },
    {
      "hello": "Hey there, welcome to the Pharmacy. Looking for anything special?",
      "goodbye": "Okay, see ya next time."
    },
    {
      "hello": "How are you? Welcome to our Pharmacy! We've got some great medicines for your Pokémon.",
      "goodbye": "Ciao, my friend. Come back anytime."
    },
    {
      "hello": "Hello, check out our Pharmacy! We have some useful Pokémon medicines today.",
      "goodbye": "Come back again soon, okay?"
    },
    {
      "hello": "Hi, looking for the best Pharmacy? Well, you just found it!",
      "goodbye": "Leaving so soon? Well, make sure you come back even sooner!"
    },
    {
      "hello": "Hi, welcome to the Pharmacy. Would you like any help?",
      "goodbye": "Bye then. Visit us again soon."
    },
    {
      "hello": "Hi, how are you? Welcome to the Pharmacy. Just call out if you need any help.",
      "goodbye": "Nice to see you. Have a great day!"
    },
    {
      "hello": "Hello, may I help you find your medicines? We have some great bargains.",
      "goodbye": "Thank you for your custom. We look forward to serving you again."
    },
    {
      "hello": "Welcome to the Pharmacy. Is there anything special you're looking for?",
      "goodbye": "Bye! Come and see us again soon!"
    },
    {
      "hello": "Welcome to our lovely store. I am sure the quality of our goods will please you.",
      "goodbye": "Delighted to have met you. Good day."
    },
    {
      "hello": "Hello, and welcome to the Pharmacy. We have an exciting range of luxury goods.",
      "goodbye": "Thank you for shopping at the Pharmacy."
    },
    {
      "hello": "Bienvenu! Our Pharmacy has fine quality merchandise to offer you.",
      "goodbye": "It was indeed a privilege to do business with you."
    },
    {
      "hello": "Welcome to our fine Pharmacy. Enjoy browsing our luxury range.",
      "goodbye": "Good day to you, and thank you for shopping at our store."
    },
    {
      "hello": "Hello, and welcome to the Pharmacy. We have an exciting range of luxury goods.",
      "goodbye": "Thank you for shopping at the Pharmacy."
    }
  ],
  "items": [
    {
      "name": "Pixelmon_Potion",
      "multi": 1.0,
      "rarity": 1.0,
      "variation": false
    },
    {
      "name": "Pixelmon_Super_Potion",
      "multi": 1.0,
      "rarity": 1.0,
      "variation": false
    },
    {
      "name": "Pixelmon_Hyper_Potion",
      "multi": 1.0,
      "rarity": 1.0,
      "variation": false
    },
    {
      "name": "Pixelmon_Revive",
      "multi": 1.0,
      "rarity": 1.0,
      "variation": false
    },
    {
      "name": "Pixelmon_Max_Revive",
      "multi": 1.0,
      "rarity": 1.0,
      "variation": false
    },
    {
      "name": "Pixelmon_Antidote",
      "multi": 1.0,
      "rarity": 1.0,
      "variation": false
    },
    {
      "name": "Pixelmon_Paralyze_Heal",
      "multi": 1.0,
      "rarity": 1.0,
      "variation": false
    },
    {
      "name": "Pixelmon_Awakening",
      "multi": 1.0,
      "rarity": 1.0,
      "variation": false
    },
    {
      "name": "Pixelmon_Burn_Heal",
      "multi": 1.0,
      "rarity": 1.0,
      "variation": false
    },
    {
      "name": "Pixelmon_HP_Up",
      "multi": 1.0,
      "rarity": 1.0,
      "variation": false
    },
    {
      "name": "Pixelmon_Protein",
      "multi": 1.0,
      "rarity": 1.0,
      "variation": false
    },
    {
      "name": "Pixelmon_Iron",
      "multi": 1.0,
      "rarity": 1.0,
      "variation": false
    },
    {
      "name": "Pixelmon_Calcium",
      "multi": 1.0,
      "rarity": 1.0,
      "variation": false
    },
    {
      "name": "Pixelmon_Zinc",
      "multi": 1.0,
      "rarity": 1.0,
      "variation": false
    },
    {
      "name": "Pixelmon_Carbos",
      "multi": 1.0,
      "rarity": 1.0,
      "variation": false
    },
    {
      "name": "Pixelmon_Ice_Heal",
      "multi": 1.0,
      "rarity": 1.0,
      "variation": false
    },
    {
      "name": "Pixelmon_Full_Heal",
      "multi": 1.0,
      "rarity": 1.0,
      "variation": false
    },
    {
      "name": "Pixelmon_Elixir",
      "multi": 1.0,
      "rarity": 1.0,
      "variation": false
    },
    {
      "name": "Pixelmon_Ether",
      "multi": 1.0,
      "rarity": 1.0,
      "variation": false
    }
  ]
}
